…
Observations are the level of items in orders by user. There are user /
order variables – user ID, order ID, order day, and order hour. There
are also item variables – name, aisle, department, and some numeric
codes. Make sure to convey structure of the data.

How many aisles, and which are most items from?

``` r
instacart %>% 
  count(aisle) %>% 
  arrange(desc(n))
```

    ## # A tibble: 134 x 2
    ##    aisle                              n
    ##    <chr>                          <int>
    ##  1 fresh vegetables              150609
    ##  2 fresh fruits                  150473
    ##  3 packaged vegetables fruits     78493
    ##  4 yogurt                         55240
    ##  5 packaged cheese                41699
    ##  6 water seltzer sparkling water  36617
    ##  7 milk                           32644
    ##  8 chips pretzels                 31269
    ##  9 soy lactosefree                26240
    ## 10 bread                          23635
    ## # … with 124 more rows
…
  select(-weekday) %>% 
  mutate(
    day_type = 
      as.factor(ifelse(day %in% c("Saturday", "Sunday"), "weekend", "weekday")),
    day = 
      as.factor(day),
    activity_min =
      as.integer(activity_min),
    week =
      as.factor(week)
  ) %>% 
  relocate(day_id, week, day, day_type)
```

    ## # A tibble: 50,400 x 6
    ##    day_id week  day    day_type activity_min activity_count
    ##     <dbl> <fct> <fct>  <fct>           <int>          <dbl>
    ##  1      2 1     Monday weekday             1              1
    ##  2      2 1     Monday weekday             2              1
    ##  3      2 1     Monday weekday             3              1
    ##  4      2 1     Monday weekday             4              1
    ##  5      2 1     Monday weekday             5              1
    ##  6      2 1     Monday weekday             6              1
    ##  7      2 1     Monday weekday             7              1
    ##  8      2 1     Monday weekday             8              1
    ##  9      2 1     Monday weekday             9              1
    ## 10      2 1     Monday weekday            10              1
    ## # … with 50,390 more rows

Describe the dataset above.

Aggregate minutes to days

``` r
accel %>% 
  group_by(week, day) %>% 
  summarize(activity_count_day = sum(activity_count)) %>% 
  arrange(week, day)
```

    ## `summarise()` regrouping output by 'week' (override with `.groups` argument)

    ## # A tibble: 35 x 3
    ## # Groups:   week [5]
    ##     week day       activity_count_day
    ##    <dbl> <chr>                  <dbl>
    ##  1     1 Friday               480543.
    ##  2     1 Monday                78828.
    ##  3     1 Saturday             376254 
    ##  4     1 Sunday               631105 
    ##  5     1 Thursday             355924.
    ##  6     1 Tuesday              307094.
    ##  7     1 Wednesday            340115.
    ##  8     2 Friday               568839 
    ##  9     2 Monday               295431 
    ## 10     2 Saturday             607175 
    ## # … with 25 more rows
…
